<svg id="Group_314" data-name="Group 314" xmlns="http://www.w3.org/2000/svg" xmlns:xlink="http://www.w3.org/1999/xlink" viewBox="0 0 40.82 33.793">
  <defs>
    <style>
      .cls-1 {
        clip-path: url(#clip-path);
      }
    </style>
    <clipPath id="clip-path">
      <rect id="Rectangle_1499" data-name="Rectangle 1499" width="40.82" height="33.793"/>
    </clipPath>
  </defs>
  <g id="Group_145" data-name="Group 145">
    <g id="Group_143" data-name="Group 143" class="cls-1">
      <path id="Path_422" data-name="Path 422" d="M16.493,275.519A1.522,1.522,0,0,0,14.974,274H3.514a1.522,1.522,0,0,0-1.519,1.519,1.577,1.577,0,0,0,.186.734H0V279.4H18.488v-3.152H16.307a1.577,1.577,0,0,0,.186-.734Zm0,0" transform="translate(0 -245.684)"/>
    </g>
    <g id="Group_144" data-name="Group 144" class="cls-1">
      <path id="Path_423" data-name="Path 423" d="M135.207,5.524l9.683,6.149a1.663,1.663,0,0,0,2.15-.589l.465-.734A1.676,1.676,0,0,0,147,8.056l-9.414-5.973a1.662,1.662,0,0,0-2.284.506l-.465.734a1.663,1.663,0,0,0,.372,2.2Zm0,0" transform="translate(-120.666 -1.638)"/>
    </g>
  </g>
  <path id="Path_424" data-name="Path 424" d="M115.408,73.1l-.01-.145-.01-.134c-.01-.093-.021-.176-.031-.269a3.777,3.777,0,0,0-.227-.909,2.986,2.986,0,0,0-.816-1.23,2.648,2.648,0,0,0-.269-.207L113.776,70c-.176-.134-.362-.269-.548-.4l-.548-.393c-.186-.134-.372-.258-.558-.382-.372-.258-.744-.506-1.116-.754l-.568-.372-.568-.362c-.382-.238-.754-.475-1.137-.713s-.765-.475-1.147-.7l-1.157-.692-1.168-.682-1.168-.672-1.178-.661-1.178-.651-1.188-.641c-.393-.217-.8-.424-1.188-.63s-.8-.424-1.2-.62l-.362.568-1.829-.868,2.046-3.224L88.333,51,83.3,58.957l9.683,6.149,2.046-3.224,1.56,1.292-.362.568c.351.279.713.548,1.075.816l1.085.806,1.085.806,1.1.8,1.1.785,1.106.775,1.106.765,1.116.754c.372.248.744.5,1.126.744s.754.486,1.137.723l.568.362.579.351c.382.238.765.465,1.157.692.2.114.393.227.579.341s.393.227.589.331.393.217.589.32l.3.155c.1.052.2.1.3.155a2.976,2.976,0,0,0,1.457.217,4.068,4.068,0,0,0,.909-.186c.083-.031.165-.052.248-.083l.134-.052.134-.052a3.773,3.773,0,0,0,.579-.289,5.34,5.34,0,0,0,.031-.672Zm0,0" transform="translate(-74.692 -45.73)"/>
  <path id="Path_425" data-name="Path 425" d="M47.6,143.658l9.414,5.984a1.653,1.653,0,0,0,2.284-.506l.465-.734a1.659,1.659,0,0,0-.382-2.2L49.7,140.051a1.663,1.663,0,0,0-2.15.589l-.465.734a1.66,1.66,0,0,0,.517,2.284Zm0,0" transform="translate(-41.992 -125.418)"/>
</svg>
