<svg xmlns="http://www.w3.org/2000/svg" viewBox="0 0 18.13 15.999">
  <defs>
    <style>
      .cls-1 {
        fill-rule: evenodd;
      }
    </style>
  </defs>
  <g id="icon_heart" transform="translate(-363 -195)">
    <path id="Heart" class="cls-1" d="M16.706,1.474a4.871,4.871,0,0,0-6.934,0l-.682.682-.682-.682A4.9,4.9,0,0,0,1.474,8.408L9.09,16.024l7.616-7.616a4.871,4.871,0,0,0,0-6.934" transform="translate(362.975 194.975)"/>
  </g>
</svg>
