<svg xmlns="http://www.w3.org/2000/svg" viewBox="0 0 6.789 13.804">
  <g id="Group_321" data-name="Group 321" transform="translate(-1048.788 -271.924)">
    <g id="Group_239" data-name="Group 239" transform="translate(1055.577 280.924) rotate(90)">
      <g id="Group_238" data-name="Group 238" transform="translate(0 0)">
        <path id="Path_515" data-name="Path 515" d="M0,0V6.789L4.8,3.395Z" transform="translate(0 0)"/>
      </g>
    </g>
    <g id="Group_240" data-name="Group 240" transform="translate(1048.788 276.728) rotate(-90)">
      <g id="Group_238-2" data-name="Group 238">
        <path id="Path_515-2" data-name="Path 515" d="M0,0V6.789L4.8,3.395Z" transform="translate(0 0)"/>
      </g>
    </g>
  </g>
</svg>
